{
    "name": "Hydroqc Add-on",
    "version": "0.3.3",
    "slug": "hydroqc",
    "description": "Get your consumption data from your HydroQuebec account to your MQTT using this hass addon",
    "url": "https://gitlab.com/weimdall/hydroqc-hass-addons",
    "image": "registry.gitlab.com/weimdall/hydroqc-hass-addons/{arch}",
    "arch": [
        "armhf",
        "armv7",
        "aarch64",
        "amd64",
        "i386"
    ],
    "init": "false",
    "map": [
        "config:rw"
    ],
    "services": [
        "mqtt:need"
    ],
    "options": {
        "hydro_quebec": {
            "hq_username": null,
            "hq_password": null,
            "hq_customer": null,
            "hq_account": null,
            "hq_contract": null
        },
        "mqtt": {
            "mqtt_discovery_data_topic": "homeassistant",
            "mqtt_data_root_topic": "hydroqc"
        },
        "advanced": {
            "sync_frequency": 600,
            "timezone": "America/Toronto",
            "hydroqc_config_file": ""
        }
    },
    "schema": {
        "hydro_quebec": {
            "hq_username": "email",
            "hq_password": "password",
            "hq_customer": "match(\\d{10})",
            "hq_account": "match(\\d{12})",
            "hq_contract": "match(\\d{10})"
        },
        "mqtt": {
            "mqtt_discovery_data_topic": "str",
            "mqtt_data_root_topic": "str",
            "mqtt_username": "str?",
            "mqtt_password": "password?",
            "mqtt_server": "str?",
            "mqtt_port": "str?"
        },
        "advanced": {
            "sync_frequency": "int(30,)",
            "timezone": "str",
            "hydroqc_config_file": "str?"
        }
    }
}
